// Jest Snapshot v1, https://goo.gl/fbAQLP

exports[`NavItemLink renders 1`] = `
<li
  className="nav-item"
>
  <Link
    className="nav-link"
    to="https://example.com"
  >
    link text
  </Link>
</li>
`;
